<svg xmlns="http://www.w3.org/2000/svg" viewBox="0 0 379.9 214.2">
  <title>zeppeliner</title>
  <path d="M361.6,82.9h-2V9.3H331.1L290.5,34.5l-1-1.7,41-25.5h31.1V82.9Z"/>
  <path d="M361.8,189.1H330.7l-0.3-.1-40.8-25.3,1.1-1.7,40.5,25.1h28.6V113.3h2v75.8Z"/>
  <path d="M193.6,214.2H133V194.1h2v18.1h57l4-19.6,1.9,0.4Z"/>
  <path d="M158.3,196.4C72.5,196.4,0,151.4,0,98.2S72.5,0,158.3,0c51.8,0,101.9,14.1,148.9,42,39.5,23.4,62.7,48.6,65.2,51.4l-1.5,1.3c-2.5-2.8-25.4-27.7-64.7-51C259.5,16,209.7,2,158.3,2,118.4,2,78.5,12.3,49,30.3,18.7,48.7,2.1,72.8,2.1,98.2S18.8,147.6,49,166.1c29.6,18,69.4,28.3,109.3,28.3,129.2,0,209.3-88.9,212.6-92.7l1.5,1.3C369,106.8,288.4,196.4,158.3,196.4Z"/>
  <path d="M142.4,148.4C77.5,148.4,29.7,131.7.2,98.8l1.5-1.3c29.1,32.5,76.4,48.9,140.7,48.9,85.2,0,169.5-27.3,205.5-38.9l1.7-.6,0.6,1.9-1.7.6c-36.1,11.7-120.6,39-206.1,39h0Z"/>
  <path d="M1,97H287.5v2H1V97Z"/>
  <path d="M1.8,98.6L0.3,97.3c5.8-7,19.4-20.5,44.8-31.6,27-11.8,59.7-17.8,97.4-17.8,85.4,0,166.7,26.3,205.7,38.9l1.9,0.6-0.6,1.9-1.9-.6c-38.9-12.6-120-38.8-205.1-38.8C49.4,49.9,11.2,87.2,1.8,98.6h0Z"/>
  <path d="M333.2,110.2c-22.7,0-46.7-4.2-46.7-12s24.1-12,46.7-12c24.5,0,46.7,8.7,46.7,12S357.8,110.2,333.2,110.2Zm0-22c-26.4,0-44.7,5.3-44.7,10s18.4,10,44.7,10c23.7,0,42-7.9,44.5-10C375.2,96,357,88.2,333.2,88.2Z"/>
</svg>
